   1               		.file	"main.c"
   2               	__SREG__ = 0x3f
   3               	__SP_H__ = 0x3e
   4               	__SP_L__ = 0x3d
   5               	__CCP__  = 0x34
   6               	__tmp_reg__ = 0
   7               	__zero_reg__ = 1
  15               	.Ltext0:
  16               	.global	dispaly
  18               	dispaly:
  19               	.LFB6:
  20               	.LM1:
  21 0000 1F93      		push r17
  22               	/* prologue: function */
  23               	/* frame size = 0 */
  24               	.LM2:
  25 0002 E0E0      		ldi r30,lo8(0)
  26 0004 F0E0      		ldi r31,hi8(0)
  27               	.LVL0:
  28 0006 A0E0      		ldi r26,lo8(0)
  29 0008 B0E0      		ldi r27,hi8(0)
  30               	.LVL1:
  31 000a 20E0      		ldi r18,lo8(0)
  32 000c 30E0      		ldi r19,hi8(0)
  33               	.LVL2:
  34 000e 4FEF      		ldi r20,lo8(-1)
  35 0010 5FEF      		ldi r21,hi8(-1)
  36               	.LBB55:
  37               	.LBB56:
  38               	.LBB57:
  39               	.LBB58:
  40               	.LBB59:
  41               	.LM3:
  42 0012 60E2      		ldi r22,lo8(20000)
  43 0014 7EE4      		ldi r23,hi8(20000)
  44               	.LBE59:
  45               	.LBE58:
  46               	.LBE57:
  47               	.LBE56:
  48               	.LM4:
  49 0016 10EF      		ldi r17,lo8(-16)
  50               	.LVL3:
  51               	.L9:
  52               	.LM5:
  53 0018 4330      		cpi r20,3
  54 001a 5105      		cpc r21,__zero_reg__
  55 001c 00F4      		brsh .L2
  56               	.LM6:
  57 001e 1BBB      		out 59-32,r17
  58               	.LM7:
  59 0020 DC98      		cbi 59-32,4
  60               	.LBB63:
  61               	.LBB64:
  62               	.LBB65:
  63               	.LBB66:
  64               	.LM8:
  65 0022 CB01      		movw r24,r22
  66               	.LVL4:
  67               	/* #APP */
  68               	 ;  105 "c:/winavr-20100110/lib/gcc/../../avr/include/util/delay_basic.h" 1
  69 0024 0197      		1: sbiw r24,1
  70 0026 01F4      		brne 1b
  71               	 ;  0 "" 2
  72               	/* #NOAPP */
  73               	.LBE66:
  74               	.LBE65:
  75               	.LBE64:
  76               	.LBE63:
  77               	.LM9:
  78 0028 4230      		cpi r20,2
  79 002a 5105      		cpc r21,__zero_reg__
  80 002c 00F0      		brlo .L3
  81 002e 00C0      		rjmp .L4
  82               	.LVL5:
  83               	.L2:
  84               	.LM10:
  85 0030 2F5F      		subi r18,lo8(-(1))
  86 0032 3F4F      		sbci r19,hi8(-(1))
  87               	.LM11:
  88 0034 822F      		mov r24,r18
  89               	.LVL6:
  90 0036 806F      		ori r24,lo8(-16)
  91 0038 8BBB      		out 59-32,r24
  92               	.LM12:
  93 003a DC98      		cbi 59-32,4
  94               	.LBB67:
  95               	.LBB68:
  96               	.LBB69:
  97               	.LBB70:
  98               	.LM13:
  99 003c CB01      		movw r24,r22
 100               	.LVL7:
 101               	/* #APP */
 102               	 ;  105 "c:/winavr-20100110/lib/gcc/../../avr/include/util/delay_basic.h" 1
 103 003e 0197      		1: sbiw r24,1
 104 0040 01F4      		brne 1b
 105               	 ;  0 "" 2
 106               	/* #NOAPP */
 107               	.LBE70:
 108               	.LBE69:
 109               	.LBE68:
 110               	.LBE67:
 111               	.LM14:
 112 0042 2A30      		cpi r18,10
 113 0044 3105      		cpc r19,__zero_reg__
 114               	.LVL8:
 115 0046 04F0      		brlt .+2
 116 0048 00C0      		rjmp .L5
 117 004a 00C0      		rjmp .L4
 118               	.LVL9:
 119               	.L3:
 120               	.LM15:
 121 004c 1BBB      		out 59-32,r17
 122               	.LM16:
 123 004e DC98      		cbi 59-32,4
 124               	.LBB71:
 125               	.LBB72:
 126               	.LBB73:
 127               	.LBB74:
 128               	.LM17:
 129 0050 CB01      		movw r24,r22
 130               	.LVL10:
 131               	/* #APP */
 132               	 ;  105 "c:/winavr-20100110/lib/gcc/../../avr/include/util/delay_basic.h" 1
 133 0052 0197      		1: sbiw r24,1
 134 0054 01F4      		brne 1b
 135               	 ;  0 "" 2
 136               	/* #NOAPP */
 137 0056 00C0      		rjmp .L6
 138               	.LVL11:
 139               	.L4:
 140               	.LBE74:
 141               	.LBE73:
 142               	.LBE72:
 143               	.LBE71:
 144               	.LM18:
 145 0058 1196      		adiw r26,1
 146               	.LM19:
 147 005a 822F      		mov r24,r18
 148               	.LVL12:
 149 005c 806F      		ori r24,lo8(-16)
 150 005e 8BBB      		out 59-32,r24
 151               	.LM20:
 152 0060 DD98      		cbi 59-32,5
 153               	.LBB75:
 154               	.LBB62:
 155               	.LBB61:
 156               	.LBB60:
 157               	.LM21:
 158 0062 CB01      		movw r24,r22
 159               	.LVL13:
 160               	/* #APP */
 161               	 ;  105 "c:/winavr-20100110/lib/gcc/../../avr/include/util/delay_basic.h" 1
 162 0064 0197      		1: sbiw r24,1
 163 0066 01F4      		brne 1b
 164               	 ;  0 "" 2
 165               	/* #NOAPP */
 166               	.LBE60:
 167               	.LBE61:
 168               	.LBE62:
 169               	.LBE75:
 170               	.LM22:
 171 0068 AA30      		cpi r26,10
 172 006a B105      		cpc r27,__zero_reg__
 173 006c 04F0      		brlt .L6
 174 006e A0E0      		ldi r26,lo8(0)
 175 0070 B0E0      		ldi r27,hi8(0)
 176               	.LVL14:
 177               	.L6:
 178               	.LM23:
 179 0072 4F5F      		subi r20,lo8(-(1))
 180 0074 5F4F      		sbci r21,hi8(-(1))
 181               	.LM24:
 182 0076 4130      		cpi r20,1
 183 0078 5105      		cpc r21,__zero_reg__
 184 007a 01F4      		brne .L7
 185               	.LM25:
 186 007c 1BBB      		out 59-32,r17
 187               	.LM26:
 188 007e DE98      		cbi 59-32,6
 189               	.LBB76:
 190               	.LBB77:
 191               	.LBB78:
 192               	.LBB79:
 193               	.LM27:
 194 0080 CB01      		movw r24,r22
 195               	.LVL15:
 196               	/* #APP */
 197               	 ;  105 "c:/winavr-20100110/lib/gcc/../../avr/include/util/delay_basic.h" 1
 198 0082 0197      		1: sbiw r24,1
 199 0084 01F4      		brne 1b
 200               	 ;  0 "" 2
 201               	/* #NOAPP */
 202               	.LBE79:
 203               	.LBE78:
 204               	.LBE77:
 205               	.LBE76:
 206               	.LM28:
 207 0086 1BBB      		out 59-32,r17
 208               	.LM29:
 209 0088 DC98      		cbi 59-32,4
 210               	.LBB80:
 211               	.LBB81:
 212               	.LBB82:
 213               	.LBB83:
 214               	.LM30:
 215 008a CB01      		movw r24,r22
 216               	.LVL16:
 217               	/* #APP */
 218               	 ;  105 "c:/winavr-20100110/lib/gcc/../../avr/include/util/delay_basic.h" 1
 219 008c 0197      		1: sbiw r24,1
 220 008e 01F4      		brne 1b
 221               	 ;  0 "" 2
 222               	/* #NOAPP */
 223 0090 00C0      		rjmp .L8
 224               	.LVL17:
 225               	.L7:
 226               	.LBE83:
 227               	.LBE82:
 228               	.LBE81:
 229               	.LBE80:
 230               	.LM31:
 231 0092 822F      		mov r24,r18
 232               	.LVL18:
 233 0094 806F      		ori r24,lo8(-16)
 234 0096 8BBB      		out 59-32,r24
 235               	.LM32:
 236 0098 DC98      		cbi 59-32,4
 237               	.LBB84:
 238               	.LBB85:
 239               	.LBB86:
 240               	.LBB87:
 241               	.LM33:
 242 009a CB01      		movw r24,r22
 243               	.LVL19:
 244               	/* #APP */
 245               	 ;  105 "c:/winavr-20100110/lib/gcc/../../avr/include/util/delay_basic.h" 1
 246 009c 0197      		1: sbiw r24,1
 247 009e 01F4      		brne 1b
 248               	 ;  0 "" 2
 249               	/* #NOAPP */
 250               	.LBE87:
 251               	.LBE86:
 252               	.LBE85:
 253               	.LBE84:
 254               	.LM34:
 255 00a0 3196      		adiw r30,1
 256               	.LM35:
 257 00a2 8E2F      		mov r24,r30
 258               	.LVL20:
 259 00a4 806F      		ori r24,lo8(-16)
 260 00a6 8BBB      		out 59-32,r24
 261               	.LM36:
 262 00a8 DC98      		cbi 59-32,4
 263               	.LBB88:
 264               	.LBB89:
 265               	.LBB90:
 266               	.LBB91:
 267               	.LM37:
 268 00aa CB01      		movw r24,r22
 269               	.LVL21:
 270               	/* #APP */
 271               	 ;  105 "c:/winavr-20100110/lib/gcc/../../avr/include/util/delay_basic.h" 1
 272 00ac 0197      		1: sbiw r24,1
 273 00ae 01F4      		brne 1b
 274               	 ;  0 "" 2
 275               	/* #NOAPP */
 276               	.LBE91:
 277               	.LBE90:
 278               	.LBE89:
 279               	.LBE88:
 280               	.LM38:
 281 00b0 EA30      		cpi r30,10
 282 00b2 F105      		cpc r31,__zero_reg__
 283               	.LVL22:
 284 00b4 04F0      		brlt .L8
 285 00b6 E0E0      		ldi r30,lo8(0)
 286 00b8 F0E0      		ldi r31,hi8(0)
 287               	.LVL23:
 288               	.L8:
 289               	.LM39:
 290 00ba 4C30      		cpi r20,12
 291 00bc 5105      		cpc r21,__zero_reg__
 292 00be 01F0      		breq .+2
 293 00c0 00C0      		rjmp .L9
 294 00c2 00C0      		rjmp .L13
 295               	.LVL24:
 296               	.L5:
 297               	.LM40:
 298 00c4 20E0      		ldi r18,lo8(0)
 299 00c6 30E0      		ldi r19,hi8(0)
 300 00c8 00C0      		rjmp .L4
 301               	.LVL25:
 302               	.L13:
 303               	/* epilogue start */
 304               	.LBE55:
 305 00ca 1F91      		pop r17
 306 00cc 0895      		ret
 307               	.LFE6:
 309               	.global	main
 311               	main:
 312               	.LFB7:
 313               	.LM41:
 314               	/* prologue: function */
 315               	/* frame size = 0 */
 316               	.LM42:
 317 00ce 8FEF      		ldi r24,lo8(-1)
 318 00d0 8ABB      		out 58-32,r24
 319               	.L15:
 320               	.LM43:
 321 00d2 0E94 0000 		call display
 322 00d6 00C0      		rjmp .L15
 323               	.LFE7:
 357               	.Letext0:
DEFINED SYMBOLS
                            *ABS*:00000000 main.c
C:\Users\animesh\AppData\Local\Temp/ccTZ378R.s:2      *ABS*:0000003f __SREG__
C:\Users\animesh\AppData\Local\Temp/ccTZ378R.s:3      *ABS*:0000003e __SP_H__
C:\Users\animesh\AppData\Local\Temp/ccTZ378R.s:4      *ABS*:0000003d __SP_L__
C:\Users\animesh\AppData\Local\Temp/ccTZ378R.s:5      *ABS*:00000034 __CCP__
C:\Users\animesh\AppData\Local\Temp/ccTZ378R.s:6      *ABS*:00000000 __tmp_reg__
C:\Users\animesh\AppData\Local\Temp/ccTZ378R.s:7      *ABS*:00000001 __zero_reg__
C:\Users\animesh\AppData\Local\Temp/ccTZ378R.s:18     .text:00000000 dispaly
C:\Users\animesh\AppData\Local\Temp/ccTZ378R.s:311    .text:000000ce main

UNDEFINED SYMBOLS
display
