   1               		.file	"main.c"
   2               	__SREG__ = 0x3f
   3               	__SP_H__ = 0x3e
   4               	__SP_L__ = 0x3d
   5               	__CCP__  = 0x34
   6               	__tmp_reg__ = 0
   7               	__zero_reg__ = 1
  15               	.Ltext0:
  16               	.global	interrupt_init
  18               	interrupt_init:
  19               	.LFB6:
  20               	.LM1:
  21               	/* prologue: function */
  22               	/* frame size = 0 */
  23               	.LM2:
  24 0000 8FB7      		in r24,__SREG__
  25 0002 8068      		ori r24,lo8(-128)
  26 0004 8FBF      		out __SREG__,r24
  27               	.LM3:
  28 0006 85B7      		in r24,85-32
  29 0008 8360      		ori r24,lo8(3)
  30 000a 85BF      		out 85-32,r24
  31               	.LM4:
  32 000c 8BB7      		in r24,91-32
  33 000e 8064      		ori r24,lo8(64)
  34 0010 8BBF      		out 91-32,r24
  35               	/* epilogue start */
  36               	.LM5:
  37 0012 0895      		ret
  38               	.LFE6:
  40               	.global	main
  42               	main:
  43               	.LFB7:
  44               	.LM6:
  45               	/* prologue: function */
  46               	/* frame size = 0 */
  47               	.LM7:
  48 0014 81E0      		ldi r24,lo8(1)
  49 0016 8ABB      		out 58-32,r24
  50               	.LM8:
  51 0018 0E94 0000 		call interrupt_init
  52               	.L4:
  53 001c 00C0      		rjmp .L4
  54               	.LFE7:
  56               	.global	__vector_1
  58               	__vector_1:
  59               	.LFB8:
  60               	.LM9:
  61 001e 1F92      		push __zero_reg__
  62 0020 0F92      		push r0
  63 0022 0FB6      		in r0,__SREG__
  64 0024 0F92      		push r0
  65 0026 1124      		clr __zero_reg__
  66 0028 2F93      		push r18
  67 002a 3F93      		push r19
  68 002c 4F93      		push r20
  69 002e 5F93      		push r21
  70 0030 6F93      		push r22
  71 0032 7F93      		push r23
  72 0034 8F93      		push r24
  73 0036 9F93      		push r25
  74 0038 AF93      		push r26
  75 003a EF93      		push r30
  76 003c FF93      		push r31
  77               	/* prologue: Signal */
  78               	/* frame size = 0 */
  79               	.LM10:
  80 003e 2091 0000 		lds r18,count
  81 0042 3091 0000 		lds r19,(count)+1
  82 0046 2F5F      		subi r18,lo8(-(1))
  83 0048 3F4F      		sbci r19,hi8(-(1))
  84 004a 3093 0000 		sts (count)+1,r19
  85 004e 2093 0000 		sts count,r18
  86 0052 41E0      		ldi r20,lo8(1)
  87 0054 50E0      		ldi r21,hi8(1)
  88               	.LVL0:
  89               	.LBB13:
  90               	.LM11:
  91 0056 A1E0      		ldi r26,lo8(1)
  92               	.LBB14:
  93               	.LBB15:
  94               	.LBB16:
  95               	.LBB17:
  96               	.LM12:
  97 0058 68EC      		ldi r22,lo8(200)
  98 005a 70E0      		ldi r23,hi8(200)
  99 005c 00C0      		rjmp .L7
 100               	.LVL1:
 101               	.L9:
 102               	.LBE17:
 103               	.LBE16:
 104               	.LBE15:
 105               	.LBE14:
 106               	.LM13:
 107 005e 8BB3      		in r24,59-32
 108               	.LVL2:
 109 0060 8A27      		eor r24,r26
 110 0062 8BBB      		out 59-32,r24
 111 0064 84EF      		ldi r24,lo8(500)
 112 0066 91E0      		ldi r25,hi8(500)
 113               	.LVL3:
 114               	.L8:
 115               	.LBB21:
 116               	.LBB20:
 117               	.LBB19:
 118               	.LBB18:
 119               	.LM14:
 120 0068 FB01      		movw r30,r22
 121               	/* #APP */
 122               	 ;  105 "c:/winavr-20100110/lib/gcc/../../avr/include/util/delay_basic.h" 1
 123 006a 3197      		1: sbiw r30,1
 124 006c 01F4      		brne 1b
 125               	 ;  0 "" 2
 126               	/* #NOAPP */
 127               	.LBE18:
 128               	.LBE19:
 129               	.LM15:
 130 006e 0197      		sbiw r24,1
 131               	.LM16:
 132 0070 01F4      		brne .L8
 133               	.LBE20:
 134               	.LBE21:
 135               	.LM17:
 136 0072 4F5F      		subi r20,lo8(-(1))
 137 0074 5F4F      		sbci r21,hi8(-(1))
 138               	.L7:
 139 0076 2417      		cp r18,r20
 140 0078 3507      		cpc r19,r21
 141 007a 04F4      		brge .L9
 142               	.LBE13:
 143               	.LM18:
 144 007c 1BBA      		out 59-32,__zero_reg__
 145               	/* epilogue start */
 146               	.LM19:
 147 007e FF91      		pop r31
 148 0080 EF91      		pop r30
 149               	.LVL4:
 150 0082 AF91      		pop r26
 151 0084 9F91      		pop r25
 152 0086 8F91      		pop r24
 153               	.LVL5:
 154 0088 7F91      		pop r23
 155 008a 6F91      		pop r22
 156 008c 5F91      		pop r21
 157 008e 4F91      		pop r20
 158               	.LVL6:
 159 0090 3F91      		pop r19
 160 0092 2F91      		pop r18
 161 0094 0F90      		pop r0
 162 0096 0FBE      		out __SREG__,r0
 163 0098 0F90      		pop r0
 164 009a 1F90      		pop __zero_reg__
 165 009c 1895      		reti
 166               	.LFE8:
 168               	.global	count
 169               		.data
 172               	count:
 173 0000 0100      		.word	1
 174               	.global	digits
 177               	digits:
 178 0002 3F00      		.word	63
 179 0004 0600      		.word	6
 180 0006 5B00      		.word	91
 181 0008 4F00      		.word	79
 182 000a 6600      		.word	102
 183 000c 6D00      		.word	109
 184 000e 7D00      		.word	125
 185 0010 0700      		.word	7
 186 0012 7F00      		.word	127
 187 0014 6700      		.word	103
 188 0016 0000 0000 		.skip 10,0
 188      0000 0000 
 188      0000 
 229               	.Letext0:
DEFINED SYMBOLS
                            *ABS*:00000000 main.c
C:\Users\animesh\AppData\Local\Temp/ccaVwEwS.s:2      *ABS*:0000003f __SREG__
C:\Users\animesh\AppData\Local\Temp/ccaVwEwS.s:3      *ABS*:0000003e __SP_H__
C:\Users\animesh\AppData\Local\Temp/ccaVwEwS.s:4      *ABS*:0000003d __SP_L__
C:\Users\animesh\AppData\Local\Temp/ccaVwEwS.s:5      *ABS*:00000034 __CCP__
C:\Users\animesh\AppData\Local\Temp/ccaVwEwS.s:6      *ABS*:00000000 __tmp_reg__
C:\Users\animesh\AppData\Local\Temp/ccaVwEwS.s:7      *ABS*:00000001 __zero_reg__
C:\Users\animesh\AppData\Local\Temp/ccaVwEwS.s:18     .text:00000000 interrupt_init
C:\Users\animesh\AppData\Local\Temp/ccaVwEwS.s:42     .text:00000014 main
C:\Users\animesh\AppData\Local\Temp/ccaVwEwS.s:58     .text:0000001e __vector_1
C:\Users\animesh\AppData\Local\Temp/ccaVwEwS.s:172    .data:00000000 count
C:\Users\animesh\AppData\Local\Temp/ccaVwEwS.s:177    .data:00000002 digits

UNDEFINED SYMBOLS
__do_copy_data
