00000000 W __heap_end
00000000 a __tmp_reg__
00000000 a __tmp_reg__
00000000 a __tmp_reg__
00000000 W __vector_default
00000000 T __vectors
00000001 a __zero_reg__
00000001 a __zero_reg__
00000001 a __zero_reg__
00000034 a __CCP__
00000034 a __CCP__
00000034 a __CCP__
0000003d a __SP_L__
0000003d a __SP_L__
0000003d a __SP_L__
0000003e a __SP_H__
0000003e a __SP_H__
0000003e a __SP_H__
0000003f a __SREG__
0000003f a __SREG__
0000003f a __SREG__
00000054 T __ctors_end
00000054 T __ctors_start
00000054 T __dtors_end
00000054 T __dtors_start
00000054 W __init
00000054 T __trampolines_end
00000054 T __trampolines_start
00000060 T __do_copy_data
0000006c t .do_copy_data_loop
00000070 t .do_copy_data_start
00000076 T __do_clear_bss
0000007e t .do_clear_bss_loop
00000080 t .do_clear_bss_start
0000008e T __bad_interrupt
0000008e W __vector_10
0000008e W __vector_11
0000008e W __vector_12
0000008e W __vector_13
0000008e W __vector_14
0000008e W __vector_15
0000008e W __vector_16
0000008e W __vector_17
0000008e W __vector_18
0000008e W __vector_19
0000008e W __vector_2
0000008e W __vector_20
0000008e W __vector_3
0000008e W __vector_4
0000008e W __vector_5
0000008e W __vector_6
0000008e W __vector_7
0000008e W __vector_8
0000008e W __vector_9
00000092 T interrupt_init
000000a6 T __vector_1
0000010a T main
0000011c T adc_init
00000128 T adc_read
00000144 T display
000001da T __divmodhi4
000001da T _div
000001ee t __divmodhi4_neg2
000001f4 t __divmodhi4_exit
000001f6 t __divmodhi4_neg1
00000200 T __udivmodhi4
00000208 t __udivmodhi4_loop
00000216 t __udivmodhi4_ep
00000228 T _exit
00000228 W exit
0000022a t __stop_program
0000022c A __data_load_start
0000022c T _etext
0000024a A __data_load_end
0000085f W __stack
00800060 D __data_start
00800060 D digits
0080007e B __bss_start
0080007e D __data_end
0080007e D _edata
0080007e B adc_value
00800080 B __bss_end
00800080 N _end
00810000 N __eeprom_end
