   1               		.file	"7seg.c"
   2               	__SREG__ = 0x3f
   3               	__SP_H__ = 0x3e
   4               	__SP_L__ = 0x3d
   5               	__CCP__  = 0x34
   6               	__tmp_reg__ = 0
   7               	__zero_reg__ = 1
  15               	.Ltext0:
  16               	.global	display
  18               	display:
  19               	.LFB6:
  20               	.LM1:
  21               	.LVL0:
  22 0000 DF93      		push r29
  23 0002 CF93      		push r28
  24 0004 CDB7      		in r28,__SP_L__
  25 0006 DEB7      		in r29,__SP_H__
  26 0008 2897      		sbiw r28,8
  27 000a 0FB6      		in __tmp_reg__,__SREG__
  28 000c F894      		cli
  29 000e DEBF      		out __SP_H__,r29
  30 0010 0FBE      		out __SREG__,__tmp_reg__
  31 0012 CDBF      		out __SP_L__,r28
  32               	/* prologue: function */
  33               	/* frame size = 8 */
  34 0014 9C01      		movw r18,r24
  35               	.LM2:
  36 0016 FE01      		movw r30,r28
  37 0018 3196      		adiw r30,1
  38 001a 88E0      		ldi r24,lo8(8)
  39               	.LVL1:
  40 001c DF01      		movw r26,r30
  41 001e 1D92      		st X+,__zero_reg__
  42 0020 8A95      	        dec r24
  43 0022 01F4      		brne .-6
  44 0024 00C0      		rjmp .L2
  45               	.LVL2:
  46               	.L3:
  47               	.LM3:
  48 0026 C901      		movw r24,r18
  49 0028 6AE0      		ldi r22,lo8(10)
  50 002a 70E0      		ldi r23,hi8(10)
  51 002c 0E94 0000 		call __divmodhi4
  52 0030 8193      		st Z+,r24
  53 0032 9193      		st Z+,r25
  54               	.LM4:
  55 0034 C901      		movw r24,r18
  56 0036 6AE0      		ldi r22,lo8(10)
  57 0038 70E0      		ldi r23,hi8(10)
  58 003a 0E94 0000 		call __divmodhi4
  59 003e 9B01      		movw r18,r22
  60               	.L2:
  61               	.LM5:
  62 0040 2115      		cp r18,__zero_reg__
  63 0042 3105      		cpc r19,__zero_reg__
  64 0044 01F4      		brne .L3
  65 0046 FE01      		movw r30,r28
  66 0048 3796      		adiw r30,7
  67 004a 44E0      		ldi r20,lo8(4)
  68 004c 50E0      		ldi r21,hi8(4)
  69               	.LVL3:
  70               	.LBB13:
  71               	.LM6:
  72 004e A1E0      		ldi r26,lo8(1)
  73 0050 B0E0      		ldi r27,hi8(1)
  74               	.LBB14:
  75               	.LBB15:
  76               	.LBB16:
  77               	.LBB17:
  78               	.LM7:
  79 0052 60ED      		ldi r22,lo8(2000)
  80 0054 77E0      		ldi r23,hi8(2000)
  81               	.L4:
  82               	.LBE17:
  83               	.LBE16:
  84               	.LBE15:
  85               	.LBE14:
  86               	.LM8:
  87 0056 8081      		ld r24,Z
  88 0058 806F      		ori r24,lo8(-16)
  89 005a 85BB      		out 53-32,r24
  90               	.LM9:
  91 005c 25B3      		in r18,53-32
  92               	.LVL4:
  93 005e CD01      		movw r24,r26
  94 0060 042E      		mov r0,r20
  95 0062 00C0      		rjmp 2f
  96 0064 880F      	1:	lsl r24
  97 0066 991F      		rol r25
  98 0068 0A94      	2:	dec r0
  99 006a 02F4      		brpl 1b
 100 006c 8095      		com r24
 101 006e 8223      		and r24,r18
 102 0070 85BB      		out 53-32,r24
 103               	.LBB21:
 104               	.LBB20:
 105               	.LBB19:
 106               	.LBB18:
 107               	.LM10:
 108 0072 CB01      		movw r24,r22
 109               	.LVL5:
 110               	/* #APP */
 111               	 ;  105 "c:/winavr-20100110/lib/gcc/../../avr/include/util/delay_basic.h" 1
 112 0074 0197      		1: sbiw r24,1
 113 0076 01F4      		brne 1b
 114               	 ;  0 "" 2
 115               	/* #NOAPP */
 116               	.LBE18:
 117               	.LBE19:
 118               	.LBE20:
 119               	.LBE21:
 120               	.LM11:
 121 0078 4F5F      		subi r20,lo8(-(1))
 122 007a 5F4F      		sbci r21,hi8(-(1))
 123 007c 3297      		sbiw r30,2
 124               	.LM12:
 125 007e 4830      		cpi r20,8
 126 0080 5105      		cpc r21,__zero_reg__
 127 0082 01F4      		brne .L4
 128               	/* epilogue start */
 129               	.LBE13:
 130               	.LM13:
 131 0084 2896      		adiw r28,8
 132 0086 0FB6      		in __tmp_reg__,__SREG__
 133 0088 F894      		cli
 134 008a DEBF      		out __SP_H__,r29
 135 008c 0FBE      		out __SREG__,__tmp_reg__
 136 008e CDBF      		out __SP_L__,r28
 137 0090 CF91      		pop r28
 138 0092 DF91      		pop r29
 139 0094 0895      		ret
 140               	.LFE6:
 166               	.Letext0:
DEFINED SYMBOLS
                            *ABS*:00000000 7seg.c
C:\Users\animesh\AppData\Local\Temp/ccjzsoKW.s:2      *ABS*:0000003f __SREG__
C:\Users\animesh\AppData\Local\Temp/ccjzsoKW.s:3      *ABS*:0000003e __SP_H__
C:\Users\animesh\AppData\Local\Temp/ccjzsoKW.s:4      *ABS*:0000003d __SP_L__
C:\Users\animesh\AppData\Local\Temp/ccjzsoKW.s:5      *ABS*:00000034 __CCP__
C:\Users\animesh\AppData\Local\Temp/ccjzsoKW.s:6      *ABS*:00000000 __tmp_reg__
C:\Users\animesh\AppData\Local\Temp/ccjzsoKW.s:7      *ABS*:00000001 __zero_reg__
C:\Users\animesh\AppData\Local\Temp/ccjzsoKW.s:18     .text:00000000 display

UNDEFINED SYMBOLS
__divmodhi4
